{
    "$schema": "https://go.kicad.org/pcm/schemas/v1",
    "name": "KiKit Library",
    "description": "A footprint and schematic library for KiKit annotations.",
    "description_full": "KiKit uses these symbols a footprints to annotate your boards (e.g., to place a tab in a panel).",
    "identifier": "com.github.yaqwsx.kikit-library",
    "type": "library",
    "author": {
        "name": "Jan Mr\u00e1zek",
        "contact": {
            "github": "https://github.com/yaqwsx",
            "web": "https://honzamrazek.cz",
            "twitter": "https://twitter.com/yaqwsx_cz"
        }
    },
    "maintainer": {
        "name": "Jan Mr\u00e1zek",
        "contact": {
            "github": "https://github.com/yaqwsx",
            "web": "https://honzamrazek.cz",
            "twitter": "https://twitter.com/yaqwsx_cz"
        }
    },
    "license": "MIT",
    "resources": {
        "homepage": "https://github.com/yaqwsx/KiKit"
    },
    "versions": [
        {
            "version": "1.1.0",
            "status": "stable",
            "kicad_version": "6.0",
            "install_size": 14934,
            "download_sha256": "241314947e56983287a9fa4a74286c5eae5de6421374b5983127e68f9f144d48",
            "download_size": 11217,
            "download_url": "https://github.com/yaqwsx/KiKit/releases/download/v1.1.0/pcm-kikit-lib.zip"
        }
    ]
}
